{
  "data": [{
    "id": 804459,
    "event": "BILL_CONFIRMED",
    "user_event_id": 1037114,
    "placement": 20,
    "persists": false,
    "auto_dismiss": false,
    "read": true,
    "interacted": false,
    "created_date": "2022-08-22T13:11:17.837+10:00",
    "delivered_date": "2022-08-22T13:57:19.550+10:00",
    "message_types": ["dashboard_alerts"],
    "content_type": "text",
    "title": "Soulara bill found",
    "metadata": {},
    "content": {
      "text": "We're now tracking your Soulara bill for $11 monthly",
      "image_url": "https://frollo-staging.s3.amazonaws.com/categories/161/icon/original/1623295402.png?1623295402",
      "design_type": "dash_2"
    },
    "action": {
      "title": "Change bill details",
      "link": "frollo-staging://bills/32030",
      "open_mode": "internal"
    }
  }, {
    "id": 804458,
    "event": "BILL_CONFIRMED",
    "user_event_id": 1037113,
    "placement": 20,
    "persists": false,
    "auto_dismiss": false,
    "read": true,
    "interacted": false,
    "created_date": "2022-08-22T13:11:12.099+10:00",
    "delivered_date": "2022-08-22T13:57:19.550+10:00",
    "message_types": ["dashboard_alerts"],
    "content_type": "text",
    "title": "Skype bill found",
    "metadata": {},
    "content": {
      "text": "We're now tracking your Skype bill for $15 four_weekly",
      "image_url": "https://frollo-staging.s3.amazonaws.com/merchants/72/thumb/1ba8c7fea5f21d12ea7eaabbf51c6ccb_dont-have-a-calliflower-skype-clipart-transparent_512-512.png?1519084743",
      "design_type": "dash_1"
    },
    "action": {
      "title": "Change bill details",
      "link": "frollo-staging://bills/32028",
      "open_mode": "internal"
    }
  }, {
    "id": 804457,
    "event": "BILL_CONFIRMED",
    "user_event_id": 1037112,
    "placement": 20,
    "persists": false,
    "auto_dismiss": false,
    "read": true,
    "interacted": false,
    "created_date": "2022-08-22T13:11:09.495+10:00",
    "delivered_date": "2022-08-22T13:57:19.550+10:00",
    "message_types": ["bill_alerts"],
    "content_type": "text",
    "title": "shutterstock bill found",
    "metadata": {},
    "content": {
      "text": "We're now tracking your shutterstock bill for $39 monthly",
      "image_url": "https://frollo-staging.s3.amazonaws.com/categories/129/icon/original/1623295401.png?1623295401",
      "design_type": "dash_2"
    },
    "action": {
      "title": "Change bill details",
      "link": "frollo-staging://bills/32027",
      "open_mode": "internal"
    }
  }, {
    "id": 804455,
    "event": "BILL_CONFIRMED",
    "user_event_id": 1037110,
    "placement": 20,
    "persists": false,
    "auto_dismiss": false,
    "read": true,
    "interacted": false,
    "created_date": "2022-08-22T13:11:03.690+10:00",
    "delivered_date": "2022-08-22T13:57:19.550+10:00",
    "message_types": ["bill_alerts"],
    "content_type": "text",
    "title": "Shopify bill found",
    "metadata": {},
    "content": {
      "text": "We're now tracking your Shopify bill for $31 monthly",
      "image_url": "https://frollo-staging.s3.amazonaws.com/categories/161/icon/original/1623295402.png?1623295402",
      "design_type": "dash_1"
    },
    "action": {
      "title": "Change bill details",
      "link": "frollo-staging://bills/32026",
      "open_mode": "internal"
    }
  }, {
    "id": 804454,
    "event": "BILL_CONFIRMED",
    "user_event_id": 1037109,
    "placement": 20,
    "persists": false,
    "auto_dismiss": false,
    "read": true,
    "interacted": false,
    "created_date": "2022-08-22T13:10:58.016+10:00",
    "delivered_date": "2022-08-22T13:57:19.550+10:00",
    "message_types": ["bill_alerts"],
    "content_type": "text",
    "title": "Service Sa bill found",
    "metadata": {},
    "content": {
      "text": "We're now tracking your Service Sa bill for $74 monthly",
      "image_url": "https://frollo-staging.s3.amazonaws.com/categories/77/icon/original/1637708923.png?1637708923",
      "design_type": "dash_2"
    },
    "action": {
      "title": "Change bill details",
      "link": "frollo-staging://bills/32025",
      "open_mode": "internal"
    }
  }, {
    "id": 804453,
    "event": "BILL_CONFIRMED",
    "user_event_id": 1037108,
    "placement": 20,
    "persists": false,
    "auto_dismiss": false,
    "read": true,
    "interacted": false,
    "created_date": "2022-08-22T13:10:54.681+10:00",
    "delivered_date": "2022-08-22T13:57:19.550+10:00",
    "message_types": ["bill_alerts"],
    "content_type": "text",
    "title": "Samsung Electronics bill found",
    "metadata": {},
    "content": {
      "text": "We're now tracking your Samsung Electronics bill for $34 monthly",
      "image_url": "https://frollo-staging.s3.amazonaws.com/categories/129/icon/original/1623295401.png?1623295401",
      "design_type": "dash_1"
    },
    "action": {
      "title": "Change bill details",
      "link": "frollo-staging://bills/32024",
      "open_mode": "internal"
    }
  }, {
    "id": 804452,
    "event": "BILL_CONFIRMED",
    "user_event_id": 1037107,
    "placement": 20,
    "persists": false,
    "auto_dismiss": false,
    "read": true,
    "interacted": false,
    "created_date": "2022-08-22T13:10:49.059+10:00",
    "delivered_date": "2022-08-22T13:57:19.550+10:00",
    "message_types": ["bill_alerts"],
    "content_type": "text",
    "title": "Roam bill found",
    "metadata": {},
    "content": {
      "text": "We're now tracking your Roam bill for $65 monthly",
      "image_url": "https://frollo-staging.s3.amazonaws.com/categories/66/icon/original/1637708924.png?1637708924",
      "design_type": "dash_2"
    },
    "action": {
      "title": "Change bill details",
      "link": "frollo-staging://bills/32023",
      "open_mode": "internal"
    }
  }, {
    "id": 804451,
    "event": "BILL_CONFIRMED",
    "user_event_id": 1037104,
    "placement": 20,
    "persists": false,
    "auto_dismiss": false,
    "read": true,
    "interacted": false,
    "created_date": "2022-08-22T13:10:43.354+10:00",
    "delivered_date": "2022-08-22T13:57:19.550+10:00",
    "message_types": ["dashboard_alerts"],
    "content_type": "text",
    "title": "Roads And Maritime Services bill found",
    "metadata": {},
    "content": {
      "text": "We're now tracking your Roads And Maritime Services bill for $11 monthly",
      "image_url": "https://frollo-staging.s3.amazonaws.com/categories/94/icon/original/1623295401.png?1623295401",
      "design_type": "dash_1"
    },
    "action": {
      "title": "Change bill details",
      "link": "frollo-staging://bills/32022",
      "open_mode": "internal"
    }
  }, {
    "id": 804450,
    "event": "BILL_CONFIRMED",
    "user_event_id": 1037103,
    "placement": 20,
    "persists": false,
    "auto_dismiss": false,
    "read": true,
    "interacted": false,
    "created_date": "2022-08-22T13:10:40.590+10:00",
    "delivered_date": "2022-08-22T13:57:19.550+10:00",
    "message_types": ["dashboard_alerts"],
    "content_type": "text",
    "title": "Ring bill found",
    "metadata": {},
    "content": {
      "text": "We're now tracking your Ring bill for $44 fortnightly",
      "image_url": "https://frollo-staging.s3.amazonaws.com/categories/77/icon/original/1637708923.png?1637708923",
      "design_type": "dash_1"
    },
    "action": {
      "title": "Change bill details",
      "link": "frollo-staging://bills/32021",
      "open_mode": "internal"
    }
  }, {
    "id": 804449,
    "event": "BILL_CONFIRMED",
    "user_event_id": 1037102,
    "placement": 20,
    "persists": false,
    "auto_dismiss": false,
    "read": true,
    "interacted": false,
    "created_date": "2022-08-22T13:10:37.280+10:00",
    "delivered_date": "2022-08-22T13:57:19.550+10:00",
    "message_types": ["bill_alerts"],
    "content_type": "text",
    "title": "Rentalcover bill found",
    "metadata": {},
    "content": {
      "text": "We're now tracking your Rentalcover bill for $41 monthly",
      "image_url": "https://frollo-staging.s3.amazonaws.com/categories/161/icon/original/1623295402.png?1623295402",
      "design_type": "dash_1"
    },
    "action": {
      "title": "Change bill details",
      "link": "frollo-staging://bills/32020",
      "open_mode": "internal"
    }
  }, {
    "id": 804448,
    "event": "BILL_CONFIRMED",
    "user_event_id": 1037101,
    "placement": 20,
    "persists": false,
    "auto_dismiss": false,
    "read": true,
    "interacted": false,
    "created_date": "2022-08-22T13:10:32.375+10:00",
    "delivered_date": "2022-08-22T13:57:19.550+10:00",
    "message_types": ["bill_alerts"],
    "content_type": "text",
    "title": "Raine \u0026 Horne bill found",
    "metadata": {},
    "content": {
      "text": "We're now tracking your Raine \u0026 Horne bill for $57 monthly",
      "image_url": "https://frollo-staging.s3.amazonaws.com/merchants/1852/thumb/RaineAndHorne.png?1540169591",
      "design_type": "dash_2"
    },
    "action": {
      "title": "Change bill details",
      "link": "frollo-staging://bills/32019",
      "open_mode": "internal"
    }
  }, {
    "id": 804447,
    "event": "BILL_CONFIRMED",
    "user_event_id": 1037100,
    "placement": 20,
    "persists": false,
    "auto_dismiss": false,
    "read": true,
    "interacted": false,
    "created_date": "2022-08-22T13:10:26.951+10:00",
    "delivered_date": "2022-08-22T13:57:19.550+10:00",
    "message_types": ["bill_alerts"],
    "content_type": "text",
    "title": "Rackley Swimming bill found",
    "metadata": {},
    "content": {
      "text": "We're now tracking your Rackley Swimming bill for $33 monthly",
      "image_url": "https://frollo-staging.s3.amazonaws.com/categories/66/icon/original/1637708924.png?1637708924",
      "design_type": "dash_1"
    },
    "action": {
      "title": "Change bill details",
      "link": "frollo-staging://bills/32018",
      "open_mode": "internal"
    }
  }, {
    "id": 804446,
    "event": "BILL_CONFIRMED",
    "user_event_id": 1037099,
    "placement": 20,
    "persists": false,
    "auto_dismiss": false,
    "read": true,
    "interacted": false,
    "created_date": "2022-08-22T13:10:21.509+10:00",
    "delivered_date": "2022-08-22T13:57:19.550+10:00",
    "message_types": ["dashboard_alerts"],
    "content_type": "text",
    "title": "Strava Inc bill found",
    "metadata": {},
    "content": {
      "text": "We're now tracking your Strava Inc bill for $42 monthly",
      "image_url": "https://frollo-staging.s3.amazonaws.com/categories/66/icon/original/1637708924.png?1637708924",
      "design_type": "dash_1"
    },
    "action": {
      "title": "Change bill details",
      "link": "frollo-staging://bills/32017",
      "open_mode": "internal"
    }
  }, {
    "id": 804445,
    "event": "BILL_CONFIRMED",
    "user_event_id": 1037098,
    "placement": 20,
    "persists": false,
    "auto_dismiss": false,
    "read": true,
    "interacted": false,
    "created_date": "2022-08-22T13:10:16.297+10:00",
    "delivered_date": "2022-08-22T13:57:19.550+10:00",
    "message_types": ["bill_alerts"],
    "content_type": "text",
    "title": "Powershop Australia bill found",
    "metadata": {},
    "content": {
      "text": "We're now tracking your Powershop Australia bill for $85 monthly",
      "image_url": "https://frollo-staging.s3.amazonaws.com/categories/77/icon/original/1637708923.png?1637708923",
      "design_type": "dash_1"
    },
    "action": {
      "title": "Change bill details",
      "link": "frollo-staging://bills/32016",
      "open_mode": "internal"
    }
  }, {
    "id": 804444,
    "event": "BILL_CONFIRMED",
    "user_event_id": 1037097,
    "placement": 20,
    "persists": false,
    "auto_dismiss": false,
    "read": true,
    "interacted": false,
    "created_date": "2022-08-22T13:10:13.548+10:00",
    "delivered_date": "2022-08-22T13:57:19.550+10:00",
    "message_types": ["dashboard_alerts"],
    "content_type": "text",
    "title": "Powerdirect bill found",
    "metadata": {},
    "content": {
      "text": "We're now tracking your Powerdirect bill for $47 monthly",
      "image_url": "https://frollo-staging.s3.amazonaws.com/categories/66/icon/original/1637708924.png?1637708924",
      "design_type": "dash_2"
    },
    "action": {
      "title": "Change bill details",
      "link": "frollo-staging://bills/32015",
      "open_mode": "internal"
    }
  }, {
    "id": 804443,
    "event": "BILL_CONFIRMED",
    "user_event_id": 1037096,
    "placement": 20,
    "persists": false,
    "auto_dismiss": false,
    "read": true,
    "interacted": false,
    "created_date": "2022-08-22T13:10:08.097+10:00",
    "delivered_date": "2022-08-22T13:57:19.550+10:00",
    "message_types": ["bill_alerts"],
    "content_type": "text",
    "title": "Phoenix Health Fund bill found",
    "metadata": {},
    "content": {
      "text": "We're now tracking your Phoenix Health Fund bill for $5 monthly",
      "image_url": "https://frollo-staging.s3.amazonaws.com/categories/77/icon/original/1637708923.png?1637708923",
      "design_type": "dash_1"
    },
    "action": {
      "title": "Change bill details",
      "link": "frollo-staging://bills/32011",
      "open_mode": "internal"
    }
  }, {
    "id": 804442,
    "event": "BILL_CONFIRMED",
    "user_event_id": 1037095,
    "placement": 20,
    "persists": false,
    "auto_dismiss": false,
    "read": true,
    "interacted": false,
    "created_date": "2022-08-22T13:10:02.039+10:00",
    "delivered_date": "2022-08-22T13:57:19.550+10:00",
    "message_types": ["bill_alerts"],
    "content_type": "text",
    "title": "Payway bill found",
    "metadata": {},
    "content": {
      "text": "We're now tracking your Payway bill for $-220 fortnightly",
      "image_url": "https://frollo-staging.s3.amazonaws.com/categories/91/icon/original/1637708923.png?1637708923",
      "design_type": "dash_1"
    },
    "action": {
      "title": "Change bill details",
      "link": "frollo-staging://bills/32010",
      "open_mode": "internal"
    }
  }, {
    "id": 804441,
    "event": "BILL_CONFIRMED",
    "user_event_id": 1037094,
    "placement": 20,
    "persists": false,
    "auto_dismiss": false,
    "read": true,
    "interacted": false,
    "created_date": "2022-08-22T13:09:59.841+10:00",
    "delivered_date": "2022-08-22T13:57:19.550+10:00",
    "message_types": ["bill_alerts"],
    "content_type": "text",
    "title": "Paystay bill found",
    "metadata": {},
    "content": {
      "text": "We're now tracking your Paystay bill for $16 monthly",
      "image_url": "https://frollo-staging.s3.amazonaws.com/categories/161/icon/original/1623295402.png?1623295402",
      "design_type": "dash_1"
    },
    "action": {
      "title": "Change bill details",
      "link": "frollo-staging://bills/32007",
      "open_mode": "internal"
    }
  }, {
    "id": 804440,
    "event": "BILL_CONFIRMED",
    "user_event_id": 1037087,
    "placement": 20,
    "persists": false,
    "auto_dismiss": false,
    "read": true,
    "interacted": false,
    "created_date": "2022-08-22T13:09:53.637+10:00",
    "delivered_date": "2022-08-22T13:57:19.550+10:00",
    "message_types": ["bill_alerts"],
    "content_type": "text",
    "title": "Stratacom bill found",
    "metadata": {},
    "content": {
      "text": "We're now tracking your Stratacom bill for $120 weekly",
      "image_url": "https://frollo-staging.s3.amazonaws.com/categories/159/icon/original/1637708921.png?1637708921",
      "design_type": "dash_1"
    },
    "action": {
      "title": "Change bill details",
      "link": "frollo-staging://bills/32006",
      "open_mode": "internal"
    }
  }, {
    "id": 804439,
    "event": "BILL_CONFIRMED",
    "user_event_id": 1037086,
    "placement": 20,
    "persists": false,
    "auto_dismiss": false,
    "read": true,
    "interacted": false,
    "created_date": "2022-08-22T13:09:49.284+10:00",
    "delivered_date": "2022-08-22T13:57:19.550+10:00",
    "message_types": ["bill_alerts"],
    "content_type": "text",
    "title": "Northern Beaches Council bill found",
    "metadata": {},
    "content": {
      "text": "We're now tracking your Northern Beaches Council bill for $67 monthly",
      "image_url": "https://frollo-staging.s3.amazonaws.com/categories/129/icon/original/1623295401.png?1623295401",
      "design_type": "dash_2"
    },
    "action": {
      "title": "Change bill details",
      "link": "frollo-staging://bills/32005",
      "open_mode": "internal"
    }
  }, {
    "id": 794216,
    "event": "BILL_INSUFFICIENT_AMOUNT",
    "user_event_id": 1023028,
    "placement": 111,
    "persists": false,
    "auto_dismiss": false,
    "read": true,
    "interacted": false,
    "created_date": "2022-08-16T08:30:21.136+10:00",
    "delivered_date": "2022-08-16T09:17:19.663+10:00",
    "message_types": ["bill_alerts"],
    "content_type": "text",
    "title": "Insufficient funds alert",
    "metadata": {},
    "content": {
      "text": "You have $1,200 in bills coming up, but only $668 in your account.",
      "image_url": "https://frollo-production.s3.ap-southeast-2.amazonaws.com/app/default_app_event_icon.svg",
      "design_type": "dash_1"
    },
    "action": {
      "title": "Check your upcoming bills",
      "link": "frollo-staging://bills",
      "open_mode": "internal"
    }
  }, {
    "id": 786540,
    "event": "BILL_CONFIRMED",
    "user_event_id": 1013927,
    "placement": 20,
    "persists": false,
    "auto_dismiss": false,
    "read": true,
    "interacted": false,
    "created_date": "2022-08-12T11:01:53.261+10:00",
    "delivered_date": "2022-08-12T11:06:36.633+10:00",
    "message_types": ["bill_alerts"],
    "content_type": "text",
    "title": "Yarra Valley Water bill found",
    "metadata": {},
    "content": {
      "text": "We're now tracking your Yarra Valley Water bill for $37 monthly",
      "image_url": "https://frollo-staging.s3.amazonaws.com/categories/90/icon/original/1623295401.png?1623295401",
      "design_type": "dash_1"
    },
    "action": {
      "title": "Change bill details",
      "link": "frollo-staging://bills/31095",
      "open_mode": "internal"
    }
  }, {
    "id": 786539,
    "event": "BILL_CONFIRMED",
    "user_event_id": 1013926,
    "placement": 20,
    "persists": false,
    "auto_dismiss": false,
    "read": true,
    "interacted": false,
    "created_date": "2022-08-12T11:01:38.310+10:00",
    "delivered_date": "2022-08-12T11:06:36.633+10:00",
    "message_types": ["bill_alerts"],
    "content_type": "text",
    "title": "Vet Pay bill found",
    "metadata": {},
    "content": {
      "text": "We're now tracking your Vet Pay bill for $36 monthly",
      "image_url": "https://frollo-staging.s3.amazonaws.com/categories/93/icon/original/1623295401.png?1623295401",
      "design_type": "dash_1"
    },
    "action": {
      "title": "Change bill details",
      "link": "frollo-staging://bills/31094",
      "open_mode": "internal"
    }
  }, {
    "id": 786538,
    "event": "BILL_CONFIRMED",
    "user_event_id": 1013925,
    "placement": 20,
    "persists": false,
    "auto_dismiss": false,
    "read": true,
    "interacted": false,
    "created_date": "2022-08-12T11:01:34.048+10:00",
    "delivered_date": "2022-08-12T11:06:36.633+10:00",
    "message_types": ["bill_alerts"],
    "content_type": "text",
    "title": "Vero Insurance bill found",
    "metadata": {},
    "content": {
      "text": "We're now tracking your Vero Insurance bill for $136 monthly",
      "image_url": "https://frollo-staging.s3.amazonaws.com/categories/69/icon/original/1637708924.png?1637708924",
      "design_type": "dash_1"
    },
    "action": {
      "title": "Change bill details",
      "link": "frollo-staging://bills/31093",
      "open_mode": "internal"
    }
  }, {
    "id": 786537,
    "event": "BILL_CONFIRMED",
    "user_event_id": 1013924,
    "placement": 20,
    "persists": false,
    "auto_dismiss": false,
    "read": true,
    "interacted": false,
    "created_date": "2022-08-12T11:01:26.676+10:00",
    "delivered_date": "2022-08-12T11:06:36.633+10:00",
    "message_types": ["bill_alerts"],
    "content_type": "text",
    "title": "Unitywater bill found",
    "metadata": {},
    "content": {
      "text": "We're now tracking your Unitywater bill for $31 monthly",
      "image_url": "https://frollo-staging.s3.amazonaws.com/categories/90/icon/original/1623295401.png?1623295401",
      "design_type": "dash_1"
    },
    "action": {
      "title": "Change bill details",
      "link": "frollo-staging://bills/31092",
      "open_mode": "internal"
    }
  }],
  "paging": {
    "cursors": {
      "before": "804459",
      "after": "786537"
    },
    "previous": "https://api-staging.frollo.us/api/v2/messages/?before=804459\u0026size=25\u0026design_types=dash_1\u0026order=desc\u0026sort=created_at",
    "next": "https://api-staging.frollo.us/api/v2/messages/?after=786537\u0026size=25\u0026design_types=dash_1\u0026order=desc\u0026sort=created_at",
    "total": 51
  }
}