{
  "data": [{
    "id": 828857,
    "event": "BILL_CONFIRMED",
    "user_event_id": 1063137,
    "placement": 20,
    "persists": false,
    "auto_dismiss": false,
    "read": false,
    "interacted": false,
    "created_date": "2022-08-31T12:30:33.104+10:00",
    "delivered_date": "2022-08-31T14:09:55.247+10:00",
    "message_types": ["bill_alerts"],
    "content_type": "text",
    "title": "Zwift bill found",
    "metadata": {},
    "content": {
      "text": "We're now tracking your Zwift bill for $8 monthly",
      "image_url": "https://frollo-staging.s3.amazonaws.com/categories/77/icon/original/1637708923.png?1637708923",
      "design_type": "dash_1"
    },
    "action": {
      "title": "Change bill details",
      "link": "frollo-staging://bills/33315",
      "open_mode": "internal"
    }
  }, {
    "id": 804476,
    "event": "BILL_CONFIRMED",
    "user_event_id": 1037131,
    "placement": 20,
    "persists": false,
    "auto_dismiss": false,
    "read": false,
    "interacted": false,
    "created_date": "2022-08-22T13:12:32.103+10:00",
    "delivered_date": "2022-08-22T13:57:19.550+10:00",
    "message_types": ["bill_alerts"],
    "content_type": "text",
    "title": "Thorn Group bill found",
    "metadata": {},
    "content": {
      "text": "We're now tracking your Thorn Group bill for $27 monthly",
      "image_url": "https://frollo-staging.s3.amazonaws.com/merchants/4771/thumb/ThornGroup.png?1598932946",
      "design_type": "dash_1"
    },
    "action": {
      "title": "Change bill details",
      "link": "frollo-staging://bills/32049",
      "open_mode": "internal"
    }
  }, {
    "id": 804475,
    "event": "BILL_CONFIRMED",
    "user_event_id": 1037130,
    "placement": 20,
    "persists": false,
    "auto_dismiss": false,
    "read": false,
    "interacted": false,
    "created_date": "2022-08-22T13:12:26.878+10:00",
    "delivered_date": "2022-08-22T13:57:19.550+10:00",
    "message_types": ["dashboard_alerts"],
    "content_type": "text",
    "title": "The YMCA bill found",
    "metadata": {},
    "content": {
      "text": "We're now tracking your The YMCA bill for $71 monthly",
      "image_url": "https://frollo-staging.s3.amazonaws.com/merchants/249/thumb/YMCA.png?1530576681",
      "design_type": "dash_1"
    },
    "action": {
      "title": "Change bill details",
      "link": "frollo-staging://bills/32048",
      "open_mode": "internal"
    }
  }],
  "paging": {
    "cursors": {
      "before": null,
      "after": "804460"
    },
    "next": "https://api-staging.frollo.us/api/v2/messages/?after=804460\u0026message_types=bill_alerts,dashboard_alerts\u0026read=false\u0026order=desc\u0026sort=created_at",
    "total": 6
  }
}